<svg width="12" height="19" viewBox="0 0 12 19" fill="none" xmlns="http://www.w3.org/2000/svg">
<line y1="-1" x2="12.5932" y2="-1" transform="matrix(-0.707107 -0.707107 -0.707107 0.707107 9.90475 10.9048)" stroke="#005BC1" stroke-width="2"/>
<line x1="1.10243" y1="18.2929" x2="10.0072" y2="9.38813" stroke="#005BC1" stroke-width="2"/>
</svg>
